Chapter 4 Missing values | Analysis of stocks discussed in Reddit r/wallstreetbets
…
We can observe from the missing value plots that there are 4 different missing patterns, which are complete cases (47.19%), missing selftext (45.08%), missing both selftext and author (4.77%), and missing author only (2.95%). Therefore, out of the 7 variables in the dataset, only 2 variables might be missing, which are selftext and author respectively. Among the 2 variables, 49.85% of the selftext is missing while only 7.72% of the author is missing.

Looking into the selftext column in the original dataset, we noticed that there are 3 major levels that account for ~90% of the data, which are “removed”, "" and “deleted”. Consulted the reddit documents, we found that “removed” means the post is either removed by the moderators of the subreddit group or the administrator; “deleted” means the post is deleted by the content author; "" appears when a post doesn’t have body text or a post’s body contains pictures only. In this regard, we are only considering “removed” and “deleted” as NA, "“s are considered as valid inputs. About 45% of the posts are”removed", which means the level of censorship is relatively high.

body_agg <- df %>%
  mutate(selftext = trimws(selftext)) %>%
  group_by(selftext) %>%
  summarise(count = n()) %>%
  arrange(desc(count)) %>%
  mutate(percent = round(count/sum(count)*100, 2)) %>%
  top_n(20)

body_agg

## # A tibble: 88,017 × 3
##    selftext                                                           count percent
##    <chr>                                                              <int>   <dbl>
##  1 "removed"                                                         436413   45.1 
##  2 ""                                                                394027   40.7 
##  3 "deleted"                                                          46173    4.77
##  4 "Your daily trading discussion thread Please keep the shitpostin…     85    0.01
##  5 "Title"                                                               72    0.01
##  6 "To the moon"                                                         51    0.01
##  7 "Your daily trading discussion thread Please keep the shitpostin…     39    0   
##  8 "AMC"                                                                 37    0   
##  9 "That is all"                                                         37    0   
## 10 "TO THE MOON"                                                         37    0   
## # … with 88,007 more rows
…
